<?xml version="1.0" encoding="UTF-8"?>
<svg width="2594px" height="1573px" viewBox="0 0 2594 1573" version="1.1" xmlns="http://www.w3.org/2000/svg" xmlns:xlink="http://www.w3.org/1999/xlink">
    <!-- Generator: Sketch 61.2 (89653) - https://sketch.com -->
    <title>Path 3</title>
    <desc>Created with Sketch.</desc>
    <g id="Page-1" stroke="none" stroke-width="1" fill="none" fill-rule="evenodd">
        <path d="M2461.53869,3.57861442 C2145.08858,-206.657135 1349.67053,140.925637 1027.20625,351.280866 C704.741966,561.636095 644.575296,821.575471 520.723867,924.850319 C438.156247,993.700217 300.73859,1076.98051 108.470896,1174.6912 C11.5507675,1467.37179 26.8293633,1625.0574 154.306683,1647.74802 C345.522663,1681.78396 545.972619,1431.10034 739.63514,1372.67958 C933.297661,1314.25881 1403.10773,1210.37531 1539.91995,1175.94368 C1676.73216,1141.51206 2217.67927,794.152302 2176.51471,557.317325 C2135.35015,320.482349 2777.9888,213.814364 2461.53869,3.57861442 Z" id="Path-3" fill="#FFFBF8" transform="translate(1297.571568, 794.661414) rotate(4.000000) translate(-1297.571568, -794.661414) "></path>
    </g>
</svg>